{
    "position": "top",
    "layer": "top",
    "margin-top": 10,
    "margin-left": 10,
    "margin-right": 10,
    "modules-left": [
        "hyprland/workspaces"
        //, "hyprland/window"
        //, "sway/workspaces"
        ,
        "tray"
    ],
    "modules-center": [],
    "modules-right": [
        "memory",
        "bluetooth",
        "network",
        "pulseaudio",
        "battery",
        "hyprland/language",
        "clock",
        "custom/notification"
        //, "sway/language",
    ],
    // Modules configuration
    "hyprland/workspaces": {
        "format": "{icon} {name}",
        "format-icons": {
            "1": "",
            "2": "",
            "3": "",
            "4": "",
            "5": "",
            // "active": "",
            "default": ""
        },
        "persistent-workspaces": {
            "*": 2 // 5 workspaces by default on every monitor
            //     // "HDMI-A-1": 3 // but only three on HDMI-A-1
        }
    },
    "memory": {
        "format": "<span color='#D8C255'>󰍛</span> {used} GiB",
        "tooltip-format": "Memory: {used}/{total}GiB ({percentage}%)\nSwap: {swapUsed}/{swapTotal} ({swapPercentage}%)"
    },
    "custom/notification": {
        "tooltip": false,
        "format": "<span foreground='#D8C255'>{icon}</span> {}",
        "format-icons": {
            "notification": "<span foreground='red'><sup></sup></span>",
            "none": "",
            "dnd-notification": "<<span foreground='red'><sup></sup></span>",
            "dnd-none": "",
            "inhibited-notification": "<span foreground='red'><sup></sup></span>",
            "inhibited-none": "",
            "dnd-inhibited-notification": "<span foreground='red'><sup></sup></span>",
            "dnd-inhibited-none": ""
        },
        "return-type": "json",
        "exec-if": "which swaync-client",
        "exec": "swaync-client -swb",
        "on-click": "swaync-client -t -sw",
        "on-click-right": "swaync-client -d -sw",
        "escape": true
    },
    "clock": {
        "format": "{:%H:%M}",
        "tooltip-format": "<big>{:%d.%m.%Y}</big>\n<tt><small>{calendar}</small></tt>"
    },
    "battery": {
        "states": {
            "warning": 30,
            "critical": 15
        },
        "format": "<span foreground='#D8C255'>{icon}</span> {capacity}%",
        "format-warning": "{icon} {capacity}%",
        "format-critical": "{icon} {capacity}%",
        "format-charging": "<span></span> {capacity}%",
        "format-plugged": "<span></span> {capacity}%",
        "format-alt": "<span foreground='#D8C255'>{icon}</span> {time}",
        "format-full": "<span foreground='#D8C255'> </span>",
        "format-icons": [
            " ",
            " ",
            " ",
            " ",
            " "
        ],
        "tooltip-format": "Time remaining: {time}\nPower: {power} watts"
    },
    "network": {
        "format-wifi": "<span foreground='#D8C255'></span> {bandwidthTotalBytes}",
        "format-ethernet": "<span  foreground='#D8C255'>󰈀</span> {bandwidthTotalBytes}",
        "format-linked": "{ifname} (No IP) ",
        "format-disconnected": "<span foreground='#D8C255'> </span>Disconnected",
        "tooltip-format-ethernet": "<big>{ifname}</big>\nSignal strenght: {signalStrength}%\nIP: {ipaddr}\n<small>Mask {netmask}</small>",
        "tooltip-format-wifi": "<big>  {essid}</big>\nSignal strenght: {signalStrength}% {icon}",
        "format-icons": [
            "󰢼",
            "󰢽",
            "󰢾"
        ]
    },
    "pulseaudio": {
        "on-click": "pactl set-sink-mute @DEFAULT_SINK@ toggle",
        "format": "<span foreground='#D8C255'>{icon}</span> {volume}%",
        "format-muted": "<span foreground='#D8C255'>󰝟</span>",
        "format-icons": {
            "headphone": "",
            "hands-free": "",
            "headset": "",
            "phone": "",
            "portable": "",
            "car": "",
            "default": [
                "",
                ""
            ]
        }
    },
    "hyprland/window": {
        "format": "{class} {title}",
        "separate-outputs": true
    },
    // Раскадка клавиатуры
    "hyprland/language": {
        "format": "<span color='#D8C255'>󰌌</span> {}",
        "format-en": "EN",
        "format-ru": "РУ",
    },
    "bluetooth": {
        "format": "",
        "format-off": "<span>󰂲</span>",
        "format-on": "<span color='#D8C255'></span>",
        "format-connected": "<span color='#D8C255'></span> {device_alias}",
        "format-connected-battery": "<span color='#D8C255'></span> {device_alias} <span color='#D8415F'>󰥊</span> <small>{device_battery_percentage}%</small>",
        "format-disabled": "",
        // tooltip
        "tooltip-format-on": "{device_address}\n{device_enumerate}",
        "tooltip-format-enumerate-connected": "device {} {}",
        "tooltip-format-enumerate-connected-battery": "{} {}%",
        // behaviour
        "on-click": "pwsh -NoProfile -NonInteractive ~/.config/scripts/Toggle-BluetoothPower.ps1"
    },
    "tray": {
        "icon-size": 21,
        "spacing": 10
    }
}
